<?xml version="1.0" encoding="UTF-8"?>
<glyph name="dollar" format="1">
  <advance width="882"/>
  <unicode hex="0024"/>
  <outline>
    <contour>
      <point x="356" y="1245" type="curve" smooth="yes"/>
      <point x="361" y="1245"/>
      <point x="365" y="1243"/>
      <point x="369" y="1239" type="curve" smooth="yes"/>
      <point x="372" y="1235"/>
      <point x="374" y="1231"/>
      <point x="374" y="1227" type="curve" smooth="yes"/>
      <point x="374" y="1086" type="line"/>
      <point x="395" y="1090"/>
      <point x="417" y="1093"/>
      <point x="441" y="1094" type="curve" smooth="yes"/>
      <point x="455" y="1094"/>
      <point x="472" y="1092"/>
      <point x="490" y="1089" type="curve"/>
      <point x="490" y="1227" type="line" smooth="yes"/>
      <point x="490" y="1232"/>
      <point x="491" y="1236"/>
      <point x="495" y="1240" type="curve" smooth="yes"/>
      <point x="498" y="1243"/>
      <point x="502" y="1245"/>
      <point x="507" y="1245" type="curve" smooth="yes"/>
      <point x="508" y="1245" type="line" smooth="yes"/>
      <point x="512" y="1245"/>
      <point x="516" y="1243"/>
      <point x="520" y="1239" type="curve" smooth="yes"/>
      <point x="524" y="1235"/>
      <point x="526" y="1231"/>
      <point x="526" y="1227" type="curve" smooth="yes"/>
      <point x="526" y="1081" type="line"/>
      <point x="583" y="1062"/>
      <point x="630" y="1028"/>
      <point x="667" y="978" type="curve" smooth="yes"/>
      <point x="704" y="929"/>
      <point x="723" y="873"/>
      <point x="723" y="811" type="curve" smooth="yes"/>
      <point x="723" y="806"/>
      <point x="721" y="802"/>
      <point x="718" y="798" type="curve"/>
      <point x="714" y="795"/>
      <point x="710" y="793"/>
      <point x="705" y="793" type="curve" smooth="yes"/>
      <point x="700" y="793"/>
      <point x="696" y="795"/>
      <point x="693" y="798" type="curve" smooth="yes"/>
      <point x="689" y="802"/>
      <point x="688" y="806"/>
      <point x="688" y="811" type="curve" smooth="yes"/>
      <point x="688" y="864"/>
      <point x="673" y="911"/>
      <point x="643" y="953" type="curve" smooth="yes"/>
      <point x="613" y="996"/>
      <point x="574" y="1025"/>
      <point x="526" y="1043" type="curve"/>
      <point x="526" y="705" type="line"/>
      <point x="605" y="686"/>
      <point x="670" y="644"/>
      <point x="722" y="579" type="curve" smooth="yes"/>
      <point x="773" y="515"/>
      <point x="799" y="441"/>
      <point x="799" y="357" type="curve" smooth="yes"/>
      <point x="799" y="274"/>
      <point x="773" y="200"/>
      <point x="722" y="135" type="curve"/>
      <point x="670" y="71"/>
      <point x="605" y="29"/>
      <point x="526" y="9" type="curve"/>
      <point x="526" y="-134" type="line" smooth="yes"/>
      <point x="526" y="-138"/>
      <point x="524" y="-142"/>
      <point x="520" y="-146" type="curve" smooth="yes"/>
      <point x="516" y="-149"/>
      <point x="512" y="-151"/>
      <point x="508" y="-151" type="curve" smooth="yes"/>
      <point x="503" y="-151"/>
      <point x="499" y="-149"/>
      <point x="495" y="-146" type="curve" smooth="yes"/>
      <point x="491" y="-142"/>
      <point x="490" y="-138"/>
      <point x="490" y="-134" type="curve" smooth="yes"/>
      <point x="490" y="2" type="line"/>
      <point x="475" y="0"/>
      <point x="459" y="-0"/>
      <point x="441" y="-0" type="curve" smooth="yes"/>
      <point x="419" y="-0"/>
      <point x="397" y="1"/>
      <point x="374" y="5" type="curve"/>
      <point x="374" y="-134" type="line" smooth="yes"/>
      <point x="374" y="-138"/>
      <point x="372" y="-142"/>
      <point x="369" y="-146" type="curve"/>
      <point x="365" y="-149"/>
      <point x="361" y="-151"/>
      <point x="356" y="-151" type="curve" smooth="yes"/>
      <point x="351" y="-151"/>
      <point x="347" y="-149"/>
      <point x="344" y="-146" type="curve" smooth="yes"/>
      <point x="340" y="-142"/>
      <point x="339" y="-138"/>
      <point x="339" y="-134" type="curve" smooth="yes"/>
      <point x="339" y="14" type="line"/>
      <point x="264" y="36"/>
      <point x="203" y="79"/>
      <point x="155" y="142" type="curve" smooth="yes"/>
      <point x="107" y="206"/>
      <point x="83" y="277"/>
      <point x="83" y="357" type="curve" smooth="yes"/>
      <point x="83" y="358" type="line" smooth="yes"/>
      <point x="83" y="363"/>
      <point x="84" y="367"/>
      <point x="88" y="371" type="curve" smooth="yes"/>
      <point x="91" y="375"/>
      <point x="95" y="376"/>
      <point x="100" y="376" type="curve" smooth="yes"/>
      <point x="105" y="376"/>
      <point x="109" y="375"/>
      <point x="113" y="371" type="curve" smooth="yes"/>
      <point x="116" y="367"/>
      <point x="118" y="363"/>
      <point x="118" y="358" type="curve" smooth="yes"/>
      <point x="118" y="357" type="line" smooth="yes"/>
      <point x="118" y="287"/>
      <point x="138" y="223"/>
      <point x="179" y="167" type="curve" smooth="yes"/>
      <point x="220" y="111"/>
      <point x="273" y="73"/>
      <point x="339" y="51" type="curve"/>
      <point x="339" y="662" type="line"/>
      <point x="314" y="654"/>
      <point x="291" y="644"/>
      <point x="271" y="631" type="curve"/>
      <point x="286" y="617"/>
      <point x="302" y="605"/>
      <point x="320" y="595" type="curve"/>
      <point x="326" y="593"/>
      <point x="329" y="588"/>
      <point x="329" y="580" type="curve" smooth="yes"/>
      <point x="329" y="575"/>
      <point x="327" y="571"/>
      <point x="323" y="567" type="curve" smooth="yes"/>
      <point x="319" y="564"/>
      <point x="315" y="562"/>
      <point x="311" y="562" type="curve" smooth="yes"/>
      <point x="307" y="562"/>
      <point x="304" y="563"/>
      <point x="302" y="564" type="curve" smooth="yes"/>
      <point x="277" y="578"/>
      <point x="254" y="597"/>
      <point x="233" y="619" type="curve" smooth="yes"/>
      <point x="230" y="623"/>
      <point x="228" y="625"/>
      <point x="228" y="625" type="curve" smooth="yes"/>
      <point x="182" y="679"/>
      <point x="159" y="741"/>
      <point x="159" y="811" type="curve" smooth="yes"/>
      <point x="159" y="870"/>
      <point x="175" y="923"/>
      <point x="208" y="971" type="curve" smooth="yes"/>
      <point x="241" y="1019"/>
      <point x="285" y="1053"/>
      <point x="339" y="1075" type="curve"/>
      <point x="339" y="1227" type="line" smooth="yes"/>
      <point x="339" y="1231"/>
      <point x="340" y="1235"/>
      <point x="344" y="1239" type="curve" smooth="yes"/>
      <point x="347" y="1243"/>
      <point x="351" y="1245"/>
    </contour>
    <contour>
      <point x="441" y="1059" type="curve" smooth="yes"/>
      <point x="420" y="1059"/>
      <point x="398" y="1055"/>
      <point x="374" y="1049" type="curve"/>
      <point x="374" y="709" type="line"/>
      <point x="397" y="713"/>
      <point x="419" y="715"/>
      <point x="441" y="715" type="curve" smooth="yes"/>
      <point x="459" y="715"/>
      <point x="475" y="714"/>
      <point x="490" y="712" type="curve"/>
      <point x="490" y="1054" type="line"/>
      <point x="474" y="1057"/>
      <point x="457" y="1059"/>
    </contour>
    <contour>
      <point x="339" y="1036" type="line"/>
      <point x="295" y="1016"/>
      <point x="260" y="985"/>
      <point x="234" y="945" type="curve" smooth="yes"/>
      <point x="207" y="905"/>
      <point x="194" y="860"/>
      <point x="194" y="811" type="curve" smooth="yes"/>
      <point x="194" y="753"/>
      <point x="211" y="702"/>
      <point x="247" y="658" type="curve"/>
      <point x="277" y="677"/>
      <point x="307" y="691"/>
      <point x="339" y="700" type="curve"/>
    </contour>
    <contour>
      <point x="441" y="679" type="curve" smooth="yes"/>
      <point x="418" y="679"/>
      <point x="396" y="677"/>
      <point x="374" y="672" type="curve"/>
      <point x="374" y="41" type="line"/>
      <point x="393" y="37"/>
      <point x="415" y="35"/>
      <point x="441" y="35" type="curve" smooth="yes"/>
      <point x="459" y="35"/>
      <point x="475" y="36"/>
      <point x="490" y="38" type="curve"/>
      <point x="490" y="675" type="line"/>
      <point x="472" y="678"/>
      <point x="455" y="679"/>
    </contour>
    <contour>
      <point x="526" y="668" type="curve"/>
      <point x="526" y="46" type="line"/>
      <point x="595" y="65"/>
      <point x="652" y="103"/>
      <point x="696" y="160" type="curve" smooth="yes"/>
      <point x="740" y="218"/>
      <point x="763" y="283"/>
      <point x="763" y="357" type="curve" smooth="yes"/>
      <point x="763" y="431"/>
      <point x="740" y="497"/>
      <point x="696" y="554" type="curve" smooth="yes"/>
      <point x="652" y="612"/>
      <point x="595" y="650"/>
    </contour>
  </outline>
</glyph>
