<?xml version="1.0" encoding="UTF-8"?>
<glyph name="f" format="1">
  <advance width="704"/>
  <unicode hex="0066"/>
  <outline>
    <contour>
      <point x="579" y="1094" type="curve" smooth="yes"/>
      <point x="631" y="1094"/>
      <point x="681" y="1083"/>
      <point x="728" y="1061" type="curve" smooth="yes"/>
      <point x="775" y="1039"/>
      <point x="815" y="1008"/>
      <point x="849" y="970" type="curve" smooth="yes"/>
      <point x="852" y="967"/>
      <point x="854" y="963"/>
      <point x="854" y="959" type="curve" smooth="yes"/>
      <point x="854" y="954"/>
      <point x="852" y="950"/>
      <point x="848" y="946" type="curve" smooth="yes"/>
      <point x="844" y="942"/>
      <point x="840" y="940"/>
      <point x="836" y="940" type="curve" smooth="yes"/>
      <point x="831" y="940"/>
      <point x="826" y="943"/>
      <point x="822" y="947" type="curve" smooth="yes"/>
      <point x="792" y="982"/>
      <point x="755" y="1009"/>
      <point x="713" y="1029" type="curve" smooth="yes"/>
      <point x="671" y="1049"/>
      <point x="626" y="1059"/>
      <point x="579" y="1059" type="curve" smooth="yes"/>
      <point x="520" y="1059"/>
      <point x="466" y="1044"/>
      <point x="416" y="1015" type="curve" smooth="yes"/>
      <point x="366" y="986"/>
      <point x="327" y="947"/>
      <point x="298" y="898" type="curve"/>
      <point x="270" y="848"/>
      <point x="255" y="794"/>
      <point x="255" y="736" type="curve" smooth="yes"/>
      <point x="255" y="414" type="line"/>
      <point x="457" y="414" type="line" smooth="yes"/>
      <point x="462" y="414"/>
      <point x="466" y="412"/>
      <point x="470" y="408" type="curve" smooth="yes"/>
      <point x="474" y="404"/>
      <point x="476" y="400"/>
      <point x="476" y="395" type="curve" smooth="yes"/>
      <point x="476" y="391"/>
      <point x="474" y="387"/>
      <point x="470" y="383" type="curve" smooth="yes"/>
      <point x="466" y="379"/>
      <point x="462" y="377"/>
      <point x="458" y="377" type="curve" smooth="yes"/>
      <point x="256" y="377" type="line"/>
      <point x="256" y="-208" type="line"/>
      <point x="256" y="-209" type="line" smooth="yes"/>
      <point x="256" y="-213"/>
      <point x="254" y="-217"/>
      <point x="251" y="-221" type="curve" smooth="yes"/>
      <point x="247" y="-225"/>
      <point x="243" y="-227"/>
      <point x="238" y="-227" type="curve" smooth="yes"/>
      <point x="233" y="-227"/>
      <point x="229" y="-225"/>
      <point x="226" y="-221" type="curve" smooth="yes"/>
      <point x="222" y="-217"/>
      <point x="221" y="-213"/>
      <point x="221" y="-209" type="curve" smooth="yes"/>
      <point x="221" y="-208" type="line"/>
      <point x="221" y="377" type="line"/>
      <point x="80" y="377" type="line" smooth="yes"/>
      <point x="74" y="377"/>
      <point x="70" y="379"/>
      <point x="67" y="383" type="curve" smooth="yes"/>
      <point x="63" y="387"/>
      <point x="62" y="391"/>
      <point x="62" y="395" type="curve" smooth="yes"/>
      <point x="62" y="400"/>
      <point x="63" y="404"/>
      <point x="67" y="408" type="curve" smooth="yes"/>
      <point x="70" y="412"/>
      <point x="74" y="414"/>
      <point x="80" y="414" type="curve" smooth="yes"/>
      <point x="221" y="414" type="line"/>
      <point x="221" y="736" type="line" smooth="yes"/>
      <point x="221" y="800"/>
      <point x="236" y="860"/>
      <point x="268" y="915" type="curve" smooth="yes"/>
      <point x="300" y="970"/>
      <point x="343" y="1014"/>
      <point x="398" y="1046" type="curve" smooth="yes"/>
      <point x="453" y="1078"/>
      <point x="513" y="1094"/>
    </contour>
  </outline>
</glyph>
