<?xml version="1.0" encoding="UTF-8"?>
<glyph name="uni277B" format="1">
  <advance width="1582"/>
  <unicode hex="277B"/>
  <outline>
    <contour>
      <point x="793" y="1094" type="curve" smooth="yes"/>
      <point x="727" y="1094"/>
      <point x="667" y="1078"/>
      <point x="612" y="1046" type="curve" smooth="yes"/>
      <point x="557" y="1014"/>
      <point x="514" y="970"/>
      <point x="482" y="915" type="curve" smooth="yes"/>
      <point x="450" y="860"/>
      <point x="435" y="800"/>
      <point x="435" y="736" type="curve" smooth="yes"/>
      <point x="435" y="358" type="line" smooth="yes"/>
      <point x="435" y="293"/>
      <point x="450" y="233"/>
      <point x="482" y="178" type="curve" smooth="yes"/>
      <point x="514" y="123"/>
      <point x="557" y="80"/>
      <point x="612" y="48" type="curve" smooth="yes"/>
      <point x="667" y="16"/>
      <point x="727" y="0"/>
      <point x="792" y="0" type="curve" smooth="yes"/>
      <point x="857" y="0"/>
      <point x="917" y="16"/>
      <point x="972" y="48" type="curve" smooth="yes"/>
      <point x="1026" y="80"/>
      <point x="1070" y="123"/>
      <point x="1102" y="178" type="curve" smooth="yes"/>
      <point x="1134" y="233"/>
      <point x="1150" y="293"/>
      <point x="1150" y="358" type="curve" smooth="yes"/>
      <point x="1150" y="422"/>
      <point x="1134" y="482"/>
      <point x="1102" y="537" type="curve" smooth="yes"/>
      <point x="1070" y="592"/>
      <point x="1026" y="636"/>
      <point x="972" y="668" type="curve" smooth="yes"/>
      <point x="917" y="700"/>
      <point x="857" y="716"/>
      <point x="793" y="716" type="curve" smooth="yes"/>
      <point x="723" y="716"/>
      <point x="659" y="697"/>
      <point x="601" y="660" type="curve" smooth="yes"/>
      <point x="543" y="623"/>
      <point x="500" y="574"/>
      <point x="470" y="514" type="curve"/>
      <point x="470" y="736" type="line" smooth="yes"/>
      <point x="470" y="794"/>
      <point x="484" y="848"/>
      <point x="513" y="898" type="curve" smooth="yes"/>
      <point x="541" y="947"/>
      <point x="580" y="986"/>
      <point x="630" y="1015" type="curve" smooth="yes"/>
      <point x="680" y="1044"/>
      <point x="734" y="1059"/>
      <point x="793" y="1059" type="curve" smooth="yes"/>
      <point x="835" y="1059"/>
      <point x="876" y="1050"/>
      <point x="918" y="1033" type="curve" smooth="yes"/>
      <point x="956" y="1017"/>
      <point x="990" y="994"/>
      <point x="1020" y="964" type="curve" smooth="yes"/>
      <point x="1050" y="934"/>
      <point x="1073" y="899"/>
      <point x="1089" y="861" type="curve"/>
      <point x="1091" y="853"/>
      <point x="1097" y="850"/>
      <point x="1106" y="850" type="curve" smooth="yes"/>
      <point x="1110" y="850"/>
      <point x="1114" y="851"/>
      <point x="1118" y="855" type="curve" smooth="yes"/>
      <point x="1122" y="858"/>
      <point x="1124" y="862"/>
      <point x="1124" y="868" type="curve" smooth="yes"/>
      <point x="1124" y="870"/>
      <point x="1123" y="873"/>
      <point x="1122" y="876" type="curve" smooth="yes"/>
      <point x="1104" y="917"/>
      <point x="1079" y="955"/>
      <point x="1045" y="989" type="curve" smooth="yes"/>
      <point x="1011" y="1023"/>
      <point x="973" y="1048"/>
      <point x="932" y="1066" type="curve"/>
      <point x="888" y="1084"/>
      <point x="841" y="1094"/>
    </contour>
    <contour>
      <point x="792" y="680" type="curve" smooth="yes"/>
      <point x="850" y="680"/>
      <point x="904" y="665"/>
      <point x="954" y="637" type="curve" smooth="yes"/>
      <point x="1004" y="608"/>
      <point x="1043" y="569"/>
      <point x="1072" y="520" type="curve"/>
      <point x="1100" y="470"/>
      <point x="1115" y="416"/>
      <point x="1115" y="358" type="curve" smooth="yes"/>
      <point x="1115" y="299"/>
      <point x="1100" y="245"/>
      <point x="1072" y="196" type="curve" smooth="yes"/>
      <point x="1043" y="146"/>
      <point x="1004" y="107"/>
      <point x="954" y="79" type="curve" smooth="yes"/>
      <point x="904" y="50"/>
      <point x="851" y="36"/>
      <point x="793" y="36" type="curve" smooth="yes"/>
      <point x="703" y="36"/>
      <point x="627" y="67"/>
      <point x="565" y="129" type="curve" smooth="yes"/>
      <point x="502" y="191"/>
      <point x="470" y="267"/>
      <point x="470" y="356" type="curve" smooth="yes"/>
      <point x="470" y="357" type="line"/>
      <point x="470" y="358" type="line" smooth="yes"/>
      <point x="470" y="416"/>
      <point x="484" y="470"/>
      <point x="513" y="520" type="curve" smooth="yes"/>
      <point x="541" y="569"/>
      <point x="580" y="608"/>
      <point x="630" y="637" type="curve" smooth="yes"/>
      <point x="680" y="665"/>
      <point x="734" y="680"/>
    </contour>
    <contour>
      <point x="790,938" y="1248" type="curve" smooth="yes"/>
      <point x="1183,34" y="1248"/>
      <point x="1501,88" y="929,469"/>
      <point x="1501,88" y="537,062" type="curve" smooth="yes"/>
      <point x="1501,88" y="144,655"/>
      <point x="1183,34" y="-173,875"/>
      <point x="790,938" y="-173,875" type="curve" smooth="yes"/>
      <point x="398,531" y="-173,875"/>
      <point x="80" y="144,655"/>
      <point x="80" y="537,062" type="curve" smooth="yes"/>
      <point x="80" y="929,469"/>
      <point x="398,531" y="1248"/>
    </contour>
  </outline>
  <lib>
    <dict>
      <key>com.fontlab.hintData</key>
      <dict>
	<key>hhints</key>
	<array>
	  <dict>
	    <key>position</key>	    <integer>-174</integer>
	    <key>width</key>	    <integer>174</integer>
	  </dict>
	  <dict>
	    <key>position</key>	    <integer>36</integer>
	    <key>width</key>	    <integer>644</integer>
	  </dict>
	  <dict>
	    <key>position</key>	    <integer>716</integer>
	    <key>width</key>	    <integer>343</integer>
	  </dict>
	  <dict>
	    <key>position</key>	    <integer>1094</integer>
	    <key>width</key>	    <integer>154</integer>
	  </dict>
	</array>
	<key>vhints</key>
	<array>
	  <dict>
	    <key>position</key>
	    <integer>80</integer>
	    <key>width</key>
	    <integer>355</integer>
	  </dict>
	  <dict>
	    <key>position</key>
	    <integer>1150</integer>
	    <key>width</key>
	    <integer>352</integer>
	  </dict>
	</array>
      </dict>
    </dict>
  </lib>
</glyph>
