<?xml version="1.0" encoding="UTF-8"?>
<glyph name="uni21BE" format="1">
  <advance width="801"/>
  <unicode hex="21BE"/>
  <outline>
    <contour>
      <point x="383,999" y="1235,99" type="line"/>
      <point x="385,999" y="1241,99"/>
      <point x="392" y="1246"/>
      <point x="400" y="1246" type="curve" smooth="yes"/>
      <point x="407" y="1246"/>
      <point x="414" y="1242"/>
      <point x="417" y="1235" type="curve"/>
      <point x="718" y="784" type="line" smooth="yes"/>
      <point x="720" y="780"/>
      <point x="722" y="777"/>
      <point x="722" y="774" type="curve" smooth="yes"/>
      <point x="722" y="768"/>
      <point x="720" y="764"/>
      <point x="716" y="761" type="curve" smooth="yes"/>
      <point x="712" y="757"/>
      <point x="708" y="756"/>
      <point x="704" y="756" type="curve" smooth="yes"/>
      <point x="698" y="756"/>
      <point x="693" y="758"/>
      <point x="689" y="764" type="curve" smooth="yes"/>
      <point x="420" y="1169" type="line"/>
      <point x="420" y="18" type="line" smooth="yes"/>
      <point x="420" y="13"/>
      <point x="418" y="9"/>
      <point x="414" y="5" type="curve" smooth="yes"/>
      <point x="410" y="1"/>
      <point x="406" y="0"/>
      <point x="401" y="0" type="curve" smooth="yes"/>
      <point x="396" y="0"/>
      <point x="392" y="1"/>
      <point x="389" y="5" type="curve" smooth="yes"/>
      <point x="385" y="9"/>
      <point x="384" y="13"/>
      <point x="384" y="18" type="curve" smooth="yes"/>
    </contour>
  </outline>
  <lib>
    <dict>
      <key>com.fontlab.hintData</key>
      <dict>
	<key>hhints</key>
	<array>
	  <dict>
	    <key>position</key>	    <integer>0</integer>
	    <key>width</key>	    <integer>21</integer>
	  </dict>
	</array>
	<key>vhints</key>
	<array>
	  <dict>
	    <key>position</key>
	    <integer>384</integer>
	    <key>width</key>
	    <integer>36</integer>
	  </dict>
	</array>
      </dict>
    </dict>
  </lib>
</glyph>
